<?xml version="1.0" encoding="utf-8"?>
<!-- Generator: Adobe Illustrator 19.0.0, SVG Export Plug-In . SVG Version: 6.00 Build 0)  -->
<svg version="1.1" xmlns="http://www.w3.org/2000/svg" xmlns:xlink="http://www.w3.org/1999/xlink" x="0px" y="0px"
	 viewBox="0 0 401.374 160.255" enable-background="new 0 0 401.374 160.255" xml:space="preserve">
<g id="Layer_2">
</g>
<g id="Layer_1">
	<g>
		<g>
			<path fill="#EA8C8C" d="M27.93,47.917h-1.543v-2.1h1.543v-1.035c0-2.109,1.104-2.939,3.564-2.939
				c0.645,0,0.996,0.049,1.182,0.068v1.924c-0.137-0.02-0.264-0.029-0.635-0.029c-0.957,0-1.436,0.303-1.436,1.211v0.801h1.982v2.1
				h-1.924v8.164H27.93V47.917z"/>
			<path fill="#EA8C8C" d="M34.6,42.048h2.754v14.033H34.6V42.048z"/>
			<path fill="#EA8C8C" d="M39.424,51.305v-0.811c0-3.145,1.865-4.99,4.668-4.99c2.939,0,4.639,1.973,4.639,4.98v0.977h-6.611v0.352
				c0,1.318,0.752,2.363,2.1,2.363c1.133,0,1.758-0.586,1.855-1.289h2.568c-0.127,1.445-1.318,3.379-4.414,3.379
				C41.221,56.266,39.424,54.45,39.424,51.305z M46.084,49.782v-0.02c0-1.299-0.742-2.227-1.973-2.227
				c-1.221,0-1.992,0.938-1.992,2.227v0.02H46.084z"/>
			<path fill="#EA8C8C" d="M54.59,52.643h-0.107l-1.934,3.438h-2.91l3.193-5.166l-3.311-5.225h3.174l1.885,3.418h0.117l1.934-3.418
				h3.018l-3.379,5.137l3.311,5.254h-3.066L54.59,52.643z"/>
			<path fill="#EA8C8C" d="M0,74.387c0-2.842,1.709-4.883,4.688-4.883c2.734,0,4.326,1.68,4.346,3.75h-2.52
				c-0.068-0.771-0.674-1.602-1.748-1.602c-1.328,0-2.002,1.182-2.002,2.764v0.869c0,1.68,0.732,2.793,2.002,2.793
				c1.191,0,1.67-0.693,1.787-1.465h2.52c-0.049,2.275-1.855,3.652-4.395,3.652C1.768,80.266,0,78.382,0,75.305V74.387z"/>
			<path fill="#EA8C8C" d="M20.098,74.514v0.684c0,3.115-1.641,5.068-4.795,5.068c-3.174,0-4.824-1.934-4.824-5.059v-0.684
				c0-2.891,1.65-5.02,4.824-5.02C18.457,69.505,20.098,71.565,20.098,74.514z M13.252,74.553v0.654c0,1.465,0.43,2.949,2.041,2.949
				s2.021-1.475,2.021-2.949v-0.654c0-1.504-0.43-2.949-2.021-2.949S13.252,73.059,13.252,74.553z"/>
			<path fill="#EA8C8C" d="M22.09,69.69h2.676v1.543h0.117c0.332-0.791,1.328-1.699,2.998-1.699c2.061,0,3.555,1.27,3.555,3.721
				v6.826h-2.744v-6.025c0-1.611-0.811-2.197-1.904-2.197c-1.162,0-1.953,0.742-1.953,2.256v5.967H22.09V69.69z"/>
			<path fill="#EA8C8C" d="M34.512,67.239h2.666v2.578h2.002v2.1h-2.002v4.814c0,0.996,0.439,1.309,1.475,1.309
				c0.225,0,0.449,0,0.566-0.02v2.021c-0.215,0.039-0.684,0.088-1.24,0.088c-2.607,0-3.525-0.859-3.525-2.998v-5.215h-1.484v-2.1
				h1.543V67.239z"/>
			<path fill="#EA8C8C" d="M44.043,80.237c-2.021,0-3.418-1.191-3.418-3.145c0-1.875,1.299-3.096,3.701-3.096h2.5v-1.006
				c0-0.947-0.596-1.387-1.602-1.387c-1.045,0-1.562,0.527-1.631,1.309h-2.588c0.068-1.748,1.152-3.379,4.277-3.379
				c2.471,0,4.258,0.977,4.258,3.535v7.012h-2.588v-1.309h-0.117C46.445,79.524,45.576,80.237,44.043,80.237z M46.826,76.634v-1.025
				H44.98c-1.084,0-1.631,0.527-1.631,1.289c0,0.918,0.781,1.367,1.602,1.367C45.986,78.264,46.826,77.581,46.826,76.634z"/>
			<path fill="#EA8C8C" d="M53.477,65.725c0.977,0,1.592,0.566,1.592,1.348c0,0.791-0.605,1.357-1.592,1.357
				c-0.957,0-1.572-0.566-1.572-1.357C51.904,66.292,52.52,65.725,53.477,65.725z M52.119,69.69h2.744v10.391h-2.744V69.69z"/>
			<path fill="#EA8C8C" d="M57.549,69.69h2.676v1.543h0.117c0.332-0.791,1.328-1.699,2.998-1.699c2.061,0,3.555,1.27,3.555,3.721
				v6.826H64.15v-6.025c0-1.611-0.811-2.197-1.904-2.197c-1.162,0-1.953,0.742-1.953,2.256v5.967h-2.744V69.69z"/>
			<path fill="#EA8C8C" d="M68.838,75.305v-0.811c0-3.145,1.865-4.99,4.668-4.99c2.939,0,4.639,1.973,4.639,4.98v0.977h-6.611v0.352
				c0,1.318,0.752,2.363,2.1,2.363c1.133,0,1.758-0.586,1.855-1.289h2.568c-0.127,1.445-1.318,3.379-4.414,3.379
				C70.635,80.266,68.838,78.45,68.838,75.305z M75.498,73.782v-0.02c0-1.299-0.742-2.227-1.973-2.227
				c-1.221,0-1.992,0.938-1.992,2.227v0.02H75.498z"/>
			<path fill="#EA8C8C" d="M80.195,69.69h2.754v1.436h0.117c0.225-0.664,0.84-1.582,2.402-1.582c0.381,0,0.654,0.029,0.85,0.078
				v2.363c-0.205-0.068-0.635-0.107-1.055-0.107c-1.66,0-2.246,0.967-2.246,2.363v5.84h-2.822V69.69z"/>
		</g>
		<rect x="108.795" fill="#EA8C8C" width="292.579" height="122.435"/>
		<g>
			<g>
				
					<line fill="none" stroke="#9CD8B4" stroke-width="2" stroke-miterlimit="10" x1="198.3" y1="108.643" x2="235.538" y2="138.739"/>
				<g>
					<polygon fill="#9CD8B4" points="187.318,99.767 197.683,118.598 199.121,109.307 207.903,105.952 					"/>
				</g>
			</g>
		</g>
		<g>
			<g>
				
					<line fill="none" stroke="#9CD8B4" stroke-width="2" stroke-miterlimit="10" x1="271.555" y1="108.643" x2="234.318" y2="138.739"/>
				<g>
					<polygon fill="#9CD8B4" points="282.538,99.767 261.951,105.951 270.734,109.307 272.172,118.597 					"/>
				</g>
			</g>
		</g>
		<g>
			<g>
				
					<line fill="none" stroke="#9CD8B4" stroke-width="2" stroke-miterlimit="10" x1="235.084" y1="90.86" x2="235.084" y2="138.739"/>
				<g>
					<polygon fill="#9CD8B4" points="235.084,76.739 226.953,96.637 235.084,91.916 243.213,96.637 					"/>
				</g>
			</g>
		</g>
		<g>
			<path fill="#7EC49A" d="M192.431,151.906h-1.543v-2.1h1.543v-1.035c0-2.109,1.104-2.939,3.564-2.939
				c0.645,0,0.996,0.049,1.182,0.068v1.924c-0.137-0.02-0.264-0.029-0.635-0.029c-0.957,0-1.436,0.303-1.436,1.211v0.801h1.982v2.1
				h-1.924v8.164h-2.734V151.906z"/>
			<path fill="#7EC49A" d="M199.101,146.036h2.754v14.033h-2.754V146.036z"/>
			<path fill="#7EC49A" d="M203.925,155.294v-0.811c0-3.145,1.865-4.99,4.668-4.99c2.939,0,4.639,1.973,4.639,4.98v0.977h-6.611
				v0.352c0,1.318,0.752,2.363,2.1,2.363c1.133,0,1.758-0.586,1.855-1.289h2.568c-0.127,1.445-1.318,3.379-4.414,3.379
				C205.722,160.255,203.925,158.439,203.925,155.294z M210.585,153.771v-0.02c0-1.299-0.742-2.227-1.973-2.227
				c-1.221,0-1.992,0.938-1.992,2.227v0.02H210.585z"/>
			<path fill="#7EC49A" d="M219.091,156.632h-0.107l-1.934,3.438h-2.91l3.193-5.166l-3.311-5.225h3.174l1.885,3.418h0.117
				l1.934-3.418h3.018l-3.379,5.137l3.311,5.254h-3.066L219.091,156.632z"/>
			<path fill="#7EC49A" d="M231.142,145.714c0.977,0,1.592,0.566,1.592,1.348c0,0.791-0.605,1.357-1.592,1.357
				c-0.957,0-1.572-0.566-1.572-1.357C229.569,146.281,230.185,145.714,231.142,145.714z M229.784,149.679h2.744v10.391h-2.744
				V149.679z"/>
			<path fill="#7EC49A" d="M235.829,147.228h2.666v2.578h2.002v2.1h-2.002v4.814c0,0.996,0.439,1.309,1.475,1.309
				c0.225,0,0.449,0,0.566-0.02v2.021c-0.215,0.039-0.684,0.088-1.24,0.088c-2.607,0-3.525-0.859-3.525-2.998v-5.215h-1.484v-2.1
				h1.543V147.228z"/>
			<path fill="#7EC49A" d="M241.933,155.294v-0.811c0-3.145,1.865-4.99,4.668-4.99c2.939,0,4.639,1.973,4.639,4.98v0.977h-6.611
				v0.352c0,1.318,0.752,2.363,2.1,2.363c1.133,0,1.758-0.586,1.855-1.289h2.568c-0.127,1.445-1.318,3.379-4.414,3.379
				C243.729,160.255,241.933,158.439,241.933,155.294z M248.593,153.771v-0.02c0-1.299-0.742-2.227-1.973-2.227
				c-1.221,0-1.992,0.938-1.992,2.227v0.02H248.593z"/>
			<path fill="#7EC49A" d="M253.202,149.679h2.676v1.533h0.137c0.273-0.762,1.152-1.689,2.744-1.689s2.549,0.732,2.891,1.807h0.117
				c0.322-0.879,1.396-1.807,3.154-1.807c2.129,0,3.359,1.377,3.359,3.438v7.109h-2.744v-6.318c0-1.318-0.703-1.953-1.719-1.953
				c-1.084,0-1.758,0.732-1.758,2.041v6.23h-2.637v-6.23c0-1.475-0.762-2.041-1.738-2.041c-0.947,0-1.738,0.615-1.738,2.021v6.25
				h-2.744V149.679z"/>
			<path fill="#7EC49A" d="M274.55,149.493c2.461,0,4.023,1.211,4.023,3.184h-2.422c-0.068-0.625-0.488-1.328-1.65-1.328
				c-0.977,0-1.572,0.469-1.572,1.191c0,1.045,1.592,1.172,2.705,1.367c1.914,0.322,3.262,1.055,3.262,2.939
				c0,2.119-1.67,3.408-4.512,3.408c-2.705,0-4.277-1.279-4.277-3.125h2.666c0.088,0.713,0.693,1.25,1.738,1.25
				c1.211,0,1.719-0.537,1.719-1.221c0-0.967-1.23-1.084-2.568-1.338c-1.846-0.371-3.35-1.035-3.35-3.057
				C270.312,150.431,272.304,149.493,274.55,149.493z"/>
		</g>
		<g>
			<rect x="116.904" y="10.307" fill="#C3E2D2" width="71.414" height="61.821"/>
			<g>
				<path fill="none" stroke="#59351C" stroke-width="1.9078" stroke-linecap="round" stroke-miterlimit="10" d="M152.313,25.586
					c0,0-2.047-4.268,2.237-9.948"/>
				<path fill="#BBC42A" d="M138.031,49.471c-0.158,0.489-0.296,0.986-0.409,1.492c-1.838,8.239,2.072,15.09,12.004,15.744
					c15.82,1.041,21.555-7.12,16.783-18.667c-4.772-11.547-6.979-8.773-7.451-17.635c-0.212-3.988-3.081-7.541-7.273-6.822
					c-4.824,0.828-5.494,5.528-6.16,9.56C144.522,39.216,139.876,43.782,138.031,49.471z"/>
				
					<path fill="#7AA20D" stroke="#7AA20D" stroke-width="0.696" stroke-linecap="round" stroke-linejoin="round" stroke-miterlimit="10" d="
					M151.708,24.2c0.219-1.067,0.985-2.036,2.323-2.734c2.79-1.456,5.017-1.122,7.789,0.056c0.001,0,3.561,1.513,5.695-1.297
					c-1.326,1.746-2.613,3.463-4.13,5.062c-2.464,2.598-7.036,6.157-10.319,2.682C151.922,26.758,151.459,25.416,151.708,24.2z"/>
			</g>
		</g>
		<g>
			<rect x="201.377" y="10.91" fill="#C3E2D2" width="71.414" height="61.821"/>
			<g>
				<circle fill="#765373" cx="228.245" cy="32.806" r="6.657"/>
				<circle fill="#765373" cx="239.511" cy="32.806" r="6.657"/>
				<circle fill="#765373" cx="223.636" cy="43.46" r="6.657"/>
				<circle fill="#765373" cx="234.39" cy="43.047" r="6.657"/>
				<circle fill="#765373" cx="246.168" cy="42.279" r="6.657"/>
				<circle fill="#765373" cx="240.535" cy="51.753" r="6.657"/>
				<circle fill="#765373" cx="229.269" cy="53.495" r="6.657"/>
				<circle fill="#765373" cx="235.926" cy="61.738" r="6.657"/>
				<path fill="none" stroke="#59351C" stroke-width="2.0483" stroke-linecap="round" stroke-miterlimit="10" d="M233.007,28.011
					c0,0-3.22-3.932-0.192-10.945"/>
				
					<path fill="#7AA20D" stroke="#7AA20D" stroke-width="0.7472" stroke-linecap="round" stroke-linejoin="round" stroke-miterlimit="10" d="
					M232.024,26.719c-0.043-1.168,0.511-2.374,1.729-3.442c2.541-2.227,4.949-2.444,8.139-1.92c0.001,0,4.099,0.673,5.612-2.799
					c-0.94,2.158-1.847,4.277-3.022,6.329c-1.911,3.336-5.776,8.21-10.084,5.418C232.897,29.333,232.073,28.051,232.024,26.719z"/>
			</g>
		</g>
		<g>
			<rect x="284.646" y="10.307" fill="#C3E2D2" width="71.414" height="61.821"/>
			<g>
				<g>
					
						<path fill="#7AA20D" stroke="#7AA20D" stroke-width="0.5643" stroke-linecap="round" stroke-linejoin="round" stroke-miterlimit="10" d="
						M319.098,26.464c-0.113-0.875,0.219-1.821,1.061-2.708c1.756-1.851,3.552-2.182,5.987-2.009c0.001,0,3.129,0.222,4.025-2.495
						c-0.557,1.688-1.091,3.344-1.833,4.97c-1.205,2.641-3.773,6.575-7.206,4.775C319.936,28.37,319.227,27.463,319.098,26.464z"/>
					
						<path fill="none" stroke="#7AA20D" stroke-width="1.1601" stroke-linecap="round" stroke-linejoin="round" stroke-miterlimit="10" d="
						M315.981,31.232c0,0,1.818,0.002,3.974-3.093"/>
					<path fill="none" stroke="#59351C" stroke-width="1.812" stroke-linecap="round" stroke-miterlimit="10" d="M316.64,34.035
						c0,0-2.848-3.479-0.17-9.683"/>
				</g>
				<circle fill="#EF9235" cx="318.518" cy="49.679" r="17.161"/>
			</g>
		</g>
		<circle fill="#9CD8B4" stroke="#9CD8B4" stroke-width="2" stroke-miterlimit="10" cx="235.084" cy="137.151" r="3.217"/>
		<g>
			<g>
				<g>
					
						<line fill="none" stroke="#EA8C8C" stroke-width="2" stroke-miterlimit="10" x1="94.007" y1="92.731" x2="46.128" y2="92.731"/>
					<g>
						<polygon fill="#EA8C8C" points="108.128,92.731 88.229,84.601 92.951,92.731 88.229,100.86 						"/>
					</g>
				</g>
			</g>
			<circle fill="#EA8C8C" stroke="#EA8C8C" stroke-width="2" stroke-miterlimit="10" cx="46.128" cy="92.731" r="3.217"/>
		</g>
	</g>
	<g>
	</g>
	<g>
	</g>
	<g>
	</g>
	<g>
	</g>
	<g>
	</g>
	<g>
	</g>
	<g>
	</g>
</g>
</svg>
